//<-- CLI SHELL MODE -->
// =============================================================================
// Scilab ( https://www.scilab.org/ ) - This file is part of Scilab
// Copyright (C) Scilab Enterprises - 2013 - Paul Bignier
//
// Copyright (C) 2012 - 2016 - Scilab Enterprises
//
// This file is hereby licensed under the terms of the GNU GPL v2.0,
// pursuant to article 5.3.4 of the CeCILL v.2.1.
// This file was originally licensed under the terms of the CeCILL v2.1,
// and continues to be available under such terms.
// For more information, see the COPYING file which you should have received
// along with this program.
// =============================================================================
//<-- ENGLISH IMPOSED -->
//C-----------------------------------------------------------------------
//C First problem.
//C The initial value problem is..
//C   DY/DT = ((2*LOG(Y) + 8)/T - 5)*Y,  Y(1) = 1,  1 .LE. T .LE. 6
//C The solution is  Y(T) = EXP(-T**2 + 5*T - 4), YPRIME(1) = 3
//C The two root functions are..
//C   G1 = ((2*LOG(Y)+8)/T - 5)*Y (= DY/DT)  (with root at T = 2.5),
//C   G2 = LOG(Y) - 2.2491  (with roots at T = 2.47 and 2.53)
//C-----------------------------------------------------------------------
y0=1;t=2:6;t0=1;y0d=3;
info=list([],0,[],[],[],0,[],1,[],0,1,[],[],1);
atol=1.d-6;rtol=0;ng=2;
[yy,nn]=daskr([y0,y0d],t0,t,atol,rtol,"res1",ng,"gr1",info,"psol1","pjac1");
assert_checkalmostequal(nn(1),2.47,0.001);
y0=yy(2,2);y0d=yy(3,2);t0=nn(1);t=[3,4,5,6];
[yy,nn]=daskr([y0,y0d],t0,t,atol,rtol,"res1",ng,"gr1",info,"psol1","pjac1");
assert_checkalmostequal(nn(1),2.5,0.001);
y0=yy(2,1);y0d=yy(3,1);t0=nn(1);t=[3,4,5,6];
info=list([],0,[],[],[],0,[],0,[],0,0,[],[],1);
[yy,nn]=daskr([y0,y0d],t0,t,atol,rtol,"res1",ng,"gr1",info);
assert_checkalmostequal(nn(1),2.500009,0.001);
// Same problem, but using macro for the derivative evaluation function 'res1'
deff("[delta,ires]=res1(t,y,ydot)","ires=0;delta=ydot-((2.*log(y)+8)./t-5).*y")
deff("[rts]=gr1(t,y,yd)","rts=[((2*log(y)+8)/t-5)*y;log(y)-2.2491]")
y0=1;t=2:6;t0=1;y0d=3;
atol=1.d-6;rtol=0;ng=2;
[yy,nn]=daskr([y0,y0d],t0,t,atol,rtol,res1,ng,gr1,info);
assert_checkalmostequal(nn(1),2.47,0.001);
y0=yy(2,2);y0d=yy(3,2);t0=nn(1);t=[3,4,5,6];
[yy,nn]=daskr([y0,y0d],t0,t,atol,rtol,res1,ng,gr1,info);
assert_checkalmostequal(nn(1),2.5,0.001);
y0=yy(2,1);y0d=yy(3,1);t0=nn(1);t=[3,4,5,6];
[yy,nn]=daskr([y0,y0d],t0,t,atol,rtol,res1,ng,gr1,info);
assert_checkalmostequal(nn(1),2.53,0.001);
// Same problem, but using macros for the preconditioner evaluation and application functions 'pjac' and 'psol'
// pjac uses the macro res1 defined above.
function [wp, iwp, ires] = pjac(neq, t, y, ydot, h, cj, rewt, savr)
    ires = 0;
    SQuround = 1.490D-08;
    tx = t;
    nrow = 0;
    e = zeros(1, neq);
    wp = zeros(neq*neq, 1);
    iwp = zeros(neq*neq, 2);
    for i=1:neq
        del = max(SQuround*max(abs(y(i)), abs(h*ydot(i))), 1/rewt(i))
        if h*ydot(i) < 0 then del = -del; end
        ysave = y(i);
        ypsave = ydot(i);
        y(i) = y(i) + del;
        ydot(i) = ydot(i) + cj*del;
        [e ires] = res1(tx, y, ydot);
        if ires < 0 then
            ires = -1;
            return;
        end
        delinv = 1/del;
        for j=1:neq
            wp(nrow+j) = delinv*(e(j)-savr(j));
            if isnan(wp(nrow+j)) then
                ires = -1;
                return;
            end
            iwp(nrow+j, 1) = i;
            iwp(nrow+j, 2) = j;
        end
        nrow = nrow + neq;
        y(i) = ysave;
        ydot(i) = ypsave;
    end
endfunction
function [r, ier] = psol(wp, iwp, b)
    ier = 0;
    //Compute the LU factorization of R.
    sp = sparse(iwp, wp);
    [h, rk] = lufact(sp);
    //Solve the system LU*X = b
    r = lusolve(h, b);
    ludel(h);
endfunction
y0=1;t=2:6;t0=1;y0d=3;
info=list([],0,[],[],[],0,[],1,[],0,1,[],[],1);
atol=1.d-6;rtol=0;ng=2;
[yy,nn]=daskr([y0,y0d],t0,t,atol,rtol,res1,ng,"gr1",info,psol,pjac);
assert_checkalmostequal(nn(1),2.47,0.001);
y0=yy(2,2);y0d=yy(3,2);t0=nn(1);t=[3,4,5,6];
[yy,nn]=daskr([y0,y0d],t0,t,atol,rtol,res1,ng,"gr1",info,psol,pjac);
assert_checkalmostequal(nn(1),2.5,0.001);
y0=yy(2,1);y0d=yy(3,1);t0=nn(1);t=[3,4,5,6];
[yy,nn]=daskr([y0,y0d],t0,t,atol,rtol,res1,ng,"gr1",info,psol,pjac);
assert_checkalmostequal(nn(1),2.53,0.001);
//C
//C-----------------------------------------------------------------------
//C Second problem (Van Der Pol oscillator).
//C The initial value problem is..
//C   DY1/DT = Y2,  DY2/DT = 100*(1 - Y1**2)*Y2 - Y1,
//C   Y1(0) = 2,  Y2(0) = 0,  0 .LE. T .LE. 200
//C   Y1PRIME(0) = 0, Y2PRIME(0) = -2
//C The root function is  G = Y1.
//C An analytic solution is not known, but the zeros of Y1 are known
//C to 15 figures for purposes of checking the accuracy.
//C-----------------------------------------------------------------------
info=list([],0,[],[],[],0,[],0,[],0,0,[],[],1);
rtol=[1.d-6;1.d-6];atol=[1.d-6;1.d-4];
t0=0;y0=[2;0];y0d=[0;-2];t=[20:20:200];ng=1;
[yy,nn]=daskr([y0,y0d],t0,t,atol,rtol,"res2","jac2",ng,"gr2",info);
assert_checkalmostequal(nn(1),81.163512,0.001);
deff("[delta,ires]=res2(t,y,ydot)",...
"ires=0;y1=y(1),y2=y(2),delta=[ydot-[y2;100*(1-y1*y1)*y2-y1]]")
[yy,nn]=daskr([y0,y0d],t0,t,atol,rtol,res2,"jac2",ng,"gr2",info);
deff("J=jac2(t,y,ydot,c)","y1=y(1);y2=y(2);J=[c,-1;200*y1*y2+1,c-100*(1-y1*y1)]")
[yy,nn]=daskr([y0,y0d],t0,t,atol,rtol,res2,jac2,ng,"gr2",info);
deff("s=gr2(t,y,yd)","s=y(1)")
[yy,nn]=daskr([y0,y0d],t0,t,atol,rtol,res2,jac2,ng,gr2,info);
// Same problem, with psol and pjac example routines
info=list([],0,[],[],[],0,[],1,[],0,1,[],[],1);
[yy,nn]=daskr([y0,y0d],t0,t,atol,rtol,res2,jac2,ng,"gr2",info,"psol1","pjac1");
assert_checkalmostequal(nn(1),81.163512,0.009);
deff("s=gr2(t,y,yd)","s=y(1)")
[yy,nn]=daskr([y0,y0d],t0,t,atol,rtol,res2,jac2,ng,gr2,info,"psol1","pjac1");
assert_checkalmostequal(nn(1),81.163512,0.009);
// Same problem, with psol and pjac macros
// Redefine pjac to use res2
prot = funcprot();
funcprot(0);
function [wp, iwp, ires] = pjac(neq, t, y, ydot, h, cj, rewt, savr)
    ires = 0;
    SQuround = 1.490D-08;
    tx = t;
    nrow = 0;
    e = zeros(1, neq);
    wp = zeros(neq*neq, 1);
    iwp = zeros(neq*neq, 2);
    for i=1:neq
        del = max(SQuround*max(abs(y(i)), abs(h*ydot(i))), 1/rewt(i))
        if h*ydot(i) < 0 then del = -del; end
        ysave = y(i);
        ypsave = ydot(i);
        y(i) = y(i) + del;
        ydot(i) = ydot(i) + cj*del;
        [e ires]=res2(tx, y, ydot);
        if ires < 0 then return; end
        delinv = 1/del;
        for j=1:neq
            wp(nrow+j) = delinv*(e(j)-savr(j));
            iwp(nrow+j,1) = i;
            iwp(nrow+j,2) = j;
        end
        nrow = nrow + neq;
        y(i) = ysave;
        ydot(i) = ypsave;
    end
endfunction
funcprot(prot);
[yy,nn]=daskr([y0,y0d],t0,t,atol,rtol,res2,jac2,ng,"gr2",info,psol,pjac);
assert_checkalmostequal(nn(1),81.163512,0.003);
deff("s=gr2(t,y,yd)","s=y(1)")
[yy,nn]=daskr([y0,y0d],t0,t,atol,rtol,res2,jac2,ng,gr2,info,psol,pjac);
assert_checkalmostequal(nn(1),81.163512,0.003);
info=list([],0,[],[],[],0,[],0,[],0,0,[],[],1);
// Hot Restart
[yy,nn,hotd]=daskr([y0,y0d],t0,t,atol,rtol,"res2","jac2",ng,"gr2",info);
t01=nn(1);t=100:20:200;[pp,qq]=size(yy);y01=yy(3:4,qq);y0d1=yy(4:5,qq);
[yy,nn,hotd]=daskr([y01,y0d1],t01,t,atol,rtol,"res2","jac2",ng,"gr2",info,hotd);
assert_checkalmostequal(nn(1),162.57763,0.004);
// Same with C code
ilib_verbose(0);
cd TMPDIR;
mkdir("daskr_test1");
cd("daskr_test1");
code=["#include <math.h>"
"void res22(double *t,double *y,double *yd,double *res,int *ires,double *rpar,int *ipar)"
"{res[0] = yd[0] - y[1];"
" res[1] = yd[1] - (100.0*(1.0 - y[0]*y[0])*y[1] - y[0]);}"
" "
"void jac22(double *t,double *y,double *yd,double *pd,double *cj,double *rpar,int *ipar)"
"{pd[0]=*cj - 0.0;"
" pd[1]=    - (-200.0*y[0]*y[1] - 1.0);"
" pd[2]=    - 1.0;"
" pd[3]=*cj - (100.0*(1.0 - y[0]*y[0]));}"
" "
"void gr22(int *neq, double *t, double *y, int *ng, double *groot, double *rpar, int *ipar)"
"{ groot[0] = y[0];}"];
mputl(code,"t22.c") ;
ilib_for_link(["res22" "jac22" "gr22"],"t22.c","","c");
exec("loader.sce");
rtol=[1.d-6;1.d-6];atol=[1.d-6;1.d-4];
t0=0;y0=[2;0];y0d=[0;-2];t=[20:20:200];ng=1;
info=list([],0,[],[],[],0,[],0,[],0,0,[],[],1);
// Hot restart
t01=nn(1);t=100:20:200;[pp,qq]=size(yy);y01=yy(3:4,qq);y0d1=yy(4:5,qq);
[yy,nn,hotd]=daskr([y01,y0d1],t01,t,atol,rtol,"res22","jac22",ng,"gr22",info,hotd);
DASKR--  TOUT (=R1) BEHIND T (=R2)                                              
      In above message,  R1 =  0.1000000000000D+03   R2 =  0.1625746057949D+03  
daskr encountered trouble.
rtol=[1.d-6;1.d-6];
atol=[1.d-6;1.d-4];
t0=0;y0=[2;0];y0d=[0;-2];t=[20:20:200];ng=1;
[yy,nn]=daskr([y0,y0d],t0,t,atol,rtol,"res22","jac22",ng,"gr22",info);
// Hot restart
[yy,nn,hotd]=daskr([y0,y0d],t0,t,atol,rtol,"res22","jac22",ng,"gr22",info);
t01=nn(1);t=100:20:200;[pp,qq]=size(yy);y01=yy(3:4,qq);y0d1=yy(4:5,qq);
[yy,nn,hotd]=daskr([y01,y0d1],t01,t,atol,rtol,"res22","jac22",ng,"gr22",info,hotd);
