// =============================================================================
// Scilab ( https://www.scilab.org/ ) - This file is part of Scilab
// Copyright (C) 2009 - DIGITEO - Vincent COUVERT
//
//  This file is distributed under the same license as the Scilab package.
// =============================================================================
// <-- CLI SHELL MODE -->
// <-- Non-regression test for bug 3543 -->
//
// <-- GitLab URL -->
// https://gitlab.com/scilab/scilab/-/issues/3543
//
// <-- Short Description -->
// Wrong parenthesize in struct indices (code generated by tree2code).
testtxt = ["function bug_3543()";
"index = 12;";
"st.name = ""test"";";
"st.value(1,index) = index;";
"a = st.val(1,index);";
"endfunction"];
mputl(testtxt, TMPDIR+filesep()+"bug_3543.sci");
exec(TMPDIR+filesep()+"bug_3543.sci");
generated = tree2code(macr2tree(bug_3543));
if generated(4)<>testtxt(4) | generated(5)<>testtxt(5) then bugmes();quit;end
