// Scilab ( https://www.scilab.org/ ) - This file is part of Scilab
// Copyright (C) 2008-2009 - INRIA - Michael Baudin
// Copyright (C) 2011 - DIGITEO - Michael Baudin
//
// Copyright (C) 2012 - 2016 - Scilab Enterprises
//
// This file is hereby licensed under the terms of the GNU GPL v2.0,
// pursuant to article 5.3.4 of the CeCILL v.2.1.
// This file was originally licensed under the terms of the CeCILL v2.1,
// and continues to be available under such terms.
// For more information, see the COPYING file which you should have received
// along with this program.
// <-- CLI SHELL MODE -->
// <-- ENGLISH IMPOSED -->
// Checks that the shape of x is always the same,
// i.e. a column vector.
function [ f , index ] = optimtestcase ( x , index )
  if ( size ( x ) <> [4 1] ) then
    error ( "Wrong shape for x !" )
  end
  f = x.' * x
endfunction
//
// Test search with variable algorithm
//
nm = neldermead_new ();
nm = neldermead_configure(nm,"-numberofvariables",4);
nm = neldermead_configure(nm,"-function",optimtestcase);
nm = neldermead_configure(nm,"-x0",[1 2 3 4]');
nm = neldermead_configure(nm,"-maxiter",10);
nm = neldermead_configure(nm,"-method","variable");
nm = neldermead_search(nm, "off");
nm = neldermead_destroy(nm);
//
// Test search with fixed algorithm
//
nm = neldermead_new ();
nm = neldermead_configure(nm,"-numberofvariables",4);
nm = neldermead_configure(nm,"-function",optimtestcase);
nm = neldermead_configure(nm,"-x0",[1 2 3 4]');
nm = neldermead_configure(nm,"-maxiter",10);
nm = neldermead_configure(nm,"-method","fixed");
nm = neldermead_search(nm, "off");
nm = neldermead_destroy(nm);
//
// Test with non linear constraints 
//
function [ f , c , index ] = optimtestcase2 ( x , index )
  f = []
  c = []
  disp(x)
  if ( size ( x ) <> [4 1] ) then
    error ( "Wrong shape for x !" )
  end
  if ( ( index == 2 ) | ( index == 6 ) ) then
      f = x.' * x
  end
  if ( ( index == 5 ) | ( index == 6 ) ) then
    c1 = - x(1)^2 - x(2)^2 - x(3)^2 - x(4)^2 ...
              - x(1) + x(2) - x(3) + x(4) + 8
    c2 = - x(1)^2 - 2.0 * x(2)^2 - x(3)^2 - 2.0 * x(4)^2 ...
              + x(1) + x(4) + 10.0
    c3 = - 2.0 * x(1)^2 - x(2)^2 - x(3)^2 - 2.0 * x(1) ...
              + x(2) + x(4) + 5.0
    c = [c1 c2 c3]
  end
endfunction
nm = neldermead_new ();
nm = neldermead_configure(nm,"-numberofvariables",4);
nm = neldermead_configure(nm,"-function",optimtestcase2);
nm = neldermead_configure(nm,"-x0",[0 0 0 0]');
nm = neldermead_configure(nm,"-maxiter",10);
nm = neldermead_configure(nm,"-method","box");
nm = neldermead_configure(nm,"-nbineqconst",3);
nm = neldermead_search(nm, "off");
   0.
   0.
   0.
   0.
   0.
   0.
   0.
   0.
   0.
   0.
   0.
   0.
   0.
   0.
   0.
   0.
   0.
   0.
   0.
   0.
   1.
   0.
   0.
   0.
   0.
   1.
   0.
   0.
   0.
   0.
   1.
   0.
   0.
   0.
   0.
   1.
   0.
   0.
   0.
   0.
   1.
   0.
   0.
   0.
   0.
   1.
   0.
   0.
   0.
   0.
   1.
   0.
   0.
   0.
   0.
   1.
   0.575
   0.575
   0.575
  -1.3  
   0.575
   0.575
   0.575
  -1.3  
   0.4125
   0.4125
   0.4125
  -0.65  
   0.8121875
   0.8121875
  -1.0628125
  -0.37375  
   0.8121875
   0.8121875
  -1.0628125
  -0.37375  
   0.5826562
   0.5826562
  -0.4798437
  -0.268125 
   1.1472148
  -0.7277852
  -0.0387227
  -0.5279219
   0.823002 
  -0.239498 
  -0.0277793
  -0.3787266
   0.823002 
  -0.239498 
  -0.0277793
  -0.3787266
  -0.254559 
   0.4345035
  -0.0546958
  -0.7456896
  -0.254559 
   0.4345035
  -0.0546958
  -0.7456896
  -0.1934109
  -0.4081375
   0.8135612
  -0.6717268
  -0.1934109
  -0.4081375
   0.8135612
  -0.6717268
   0.0259124
  -0.1281306
   0.4480337
  -0.5576654
  -0.1944957
  -0.497797 
  -0.3260538
  -0.1221969
  -0.1944957
  -0.497797 
  -0.3260538
  -0.1221969
  -1.3132094
   0.2012786
   0.0748015
  -0.3273479
  -1.3132094
   0.2012786
   0.0748015
  -0.3273479
  -0.7094975
   0.0767113
   0.0458113
  -0.3418679
  -0.1739697
  -0.8806538
   0.1675844
   0.3819016
  -0.1739697
  -0.8806538
   0.1675844
   0.3819016
  -0.196745 
  -0.508979 
   0.1047661
   0.0632345
   0.712283 
  -0.7522959
   0.0708243
   0.0898673
   0.712283 
  -0.7522959
   0.0708243
   0.0898673
   0.3104755
  -0.5180113
   0.0637554
  -0.0321448
nm = neldermead_destroy(nm);
